INDEX VERSION 1.131+C:\Users\NEXSOFT\Documents\bootcamp\Git\code18\.metadata\.plugins\org.eclipse.jdt.core
2849599728.index
780075158.index
1253404360.index
2472781896.index
3364245004.index
3696571480.index
4290613272.index
3669847054.index
2895579268.index
2246601487.index
420258350.index
3847976064.index
1306806701.index
1450540953.index
4043018350.index
1865797976.index
1700960741.index
1250472357.index
3734059985.index
3616059093.index
819062391.index
3175150062.index
1989047419.index
563946608.index
3372163041.index
2849503473.index
3108443249.index
489309435.index
2947898859.index
3580306008.index
1495203042.index
3483204066.index
2205415227.index
149764002.index
3976928814.index
914997939.index
150001095.index
79452110.index
928809089.index
216142841.index
4134380684.index
2767747525.index
2558043924.index
1210658807.index
3455312478.index
1270112843.index
3317691808.index
439300517.index
2178538218.index
